﻿Бюстгальтер | В наличии | 2699 | 1_b.jpg |
Ползунки | В наличии | 2699 | 11.jpg |
Носки | В наличии | 2699 | 4.jpg |
Футболка | В наличии | 2699 | 5.jpg |
Бюстгальтер | В наличии | 2699 | 8.jpg |
Шорты | В наличии | 2699 | 9.jpg |
Нижнее белье | В наличии | 2699 | 2.jpg |
Футболка белая | В наличии | 2699 | 7.jpg |
Нижнее белье|В наличии|8999|8.jpg|
Футболка белая|В наличии|6999|7.jpg|
